{
    "template": {
        "tag": "cells-template-paper-drawer-panel",
        "properties": {
            "disableEdgeSwipe": true,
            "headerFixed": true,
            "footerFixed": true,
            "hasFooter":true
        }
    },
    "components": [
        {
            "zone": "app__header",
            "tag": "cells-component-app-header",
            "properties": {
                "text": "Movimientos por Producto",
                "cellsConnections":{
                    "in":{
                        "product-id":{
                            "bind": "text"
                        }

                    }
                }
            }
        },
        {
            "zone": "app__main",
            "tag": "cells-movements-dm",
            "familyPath": "../elements/cells-movements-dm",
            "properties": {
                "cellsConnections": {
                    "in": {
                        "movement-detail-product": {
                            "bind": "getMovements",
                            "params": {
                                "product": "id"
                            }
                        }
                    },
                    "out": {
                        "request-movements":{
                            "bind": "movements-request-succes"
                        }
                    }
                }
            }
        },
        {
            "zone": "app__main",
            "tag": "cells-movements-ui",
            "familyPath": "../elements/cells-movements-ui",
            "properties": {
                "cellsConnections": {
                    "in": {
                        "request-movements":{
                            "bind": "getMovementsData"
                        }
                    }
                },
                "out": {}
            }
        },
        {
            "tag": "cells-navigation-bar",
            "zone": "app__footer",
            "properties": {
                "selected":1,
                "disableSelected":true,
                "prevent-navigation":true,
                "items": [
                    {
                        "label": "cells-navigation-bar-home",
                        "icon": "coronita:home",
                        "id": "home",
                        "link": "#/home"

                    },
                    {
                        "label": "Simular nuevo Movimientos",
                        "icon": "coronita:transfercard",
                        "id": "Movements",
                        "link": "#/movements"
                    }
                ]
            }
        }
    ]
}